%YAML 1.1
%TAG !u! tag:unity3d.com,2011:
--- !u!74 &7400000
AnimationClip:
  m_ObjectHideFlags: 0
  m_CorrespondingSourceObject: {fileID: 0}
  m_PrefabInstance: {fileID: 0}
  m_PrefabAsset: {fileID: 0}
  m_Name: JumpAnimation
  serializedVersion: 7
  m_Legacy: 0
  m_Compressed: 0
  m_UseHighQualityCurve: 1
  m_RotationCurves: []
  m_CompressedRotationCurves: []
  m_EulerCurves: []
  m_PositionCurves: []
  m_ScaleCurves: []
  m_FloatCurves: []
  m_PPtrCurves:
  - serializedVersion: 2
    curve:
    - time: 0
      value: {fileID: 21300000, guid: 30999700f0c15324487dc807cbdc2e29, type: 3}
    - time: 0.05
      value: {fileID: 21300000, guid: 09a6d531873775b479da0c9e3776a3c0, type: 3}
    - time: 0.1
      value: {fileID: 21300000, guid: 71ee75ef374b17a4897c2fe84a17d4b3, type: 3}
    - time: 0.13333334
      value: {fileID: 21300000, guid: 04972309e3e6bb542bfde15adef028d0, type: 3}
    - time: 0.18333334
      value: {fileID: 21300000, guid: e448cca13565ffa429f952e3b4bff90c, type: 3}
    - time: 0.23333333
      value: {fileID: 21300000, guid: 60c5740d550474e429ea1d38e4b67480, type: 3}
    - time: 0.28333333
      value: {fileID: 21300000, guid: 022dfcf04273ba7409828d8161ca2d0e, type: 3}
    - time: 0.31666666
      value: {fileID: 21300000, guid: 27d4b216da18b4e4185325e4fa644742, type: 3}
    - time: 0.36666667
      value: {fileID: 21300000, guid: af599f0004f291541b519ed8af95bc8c, type: 3}
    - time: 0.41666666
      value: {fileID: 21300000, guid: 93e8c33d168bdd945b881e24343b8800, type: 3}
    attribute: m_Sprite
    path: 
    classID: 212
    script: {fileID: 0}
    flags: 2
  m_SampleRate: 60
  m_WrapMode: 0
  m_Bounds:
    m_Center: {x: 0, y: 0, z: 0}
    m_Extent: {x: 0, y: 0, z: 0}
  m_ClipBindingConstant:
    genericBindings:
    - serializedVersion: 2
      path: 0
      attribute: 0
      script: {fileID: 0}
      typeID: 212
      customType: 23
      isPPtrCurve: 1
      isIntCurve: 0
      isSerializeReferenceCurve: 0
    pptrCurveMapping:
    - {fileID: 21300000, guid: 30999700f0c15324487dc807cbdc2e29, type: 3}
    - {fileID: 21300000, guid: 09a6d531873775b479da0c9e3776a3c0, type: 3}
    - {fileID: 21300000, guid: 71ee75ef374b17a4897c2fe84a17d4b3, type: 3}
    - {fileID: 21300000, guid: 04972309e3e6bb542bfde15adef028d0, type: 3}
    - {fileID: 21300000, guid: e448cca13565ffa429f952e3b4bff90c, type: 3}
    - {fileID: 21300000, guid: 60c5740d550474e429ea1d38e4b67480, type: 3}
    - {fileID: 21300000, guid: 022dfcf04273ba7409828d8161ca2d0e, type: 3}
    - {fileID: 21300000, guid: 27d4b216da18b4e4185325e4fa644742, type: 3}
    - {fileID: 21300000, guid: af599f0004f291541b519ed8af95bc8c, type: 3}
    - {fileID: 21300000, guid: 93e8c33d168bdd945b881e24343b8800, type: 3}
  m_AnimationClipSettings:
    serializedVersion: 2
    m_AdditiveReferencePoseClip: {fileID: 0}
    m_AdditiveReferencePoseTime: 0
    m_StartTime: 0
    m_StopTime: 0.43333334
    m_OrientationOffsetY: 0
    m_Level: 0
    m_CycleOffset: 0
    m_HasAdditiveReferencePose: 0
    m_LoopTime: 0
    m_LoopBlend: 0
    m_LoopBlendOrientation: 0
    m_LoopBlendPositionY: 0
    m_LoopBlendPositionXZ: 0
    m_KeepOriginalOrientation: 0
    m_KeepOriginalPositionY: 1
    m_KeepOriginalPositionXZ: 0
    m_HeightFromFeet: 0
    m_Mirror: 0
  m_EditorCurves: []
  m_EulerEditorCurves: []
  m_HasGenericRootTransform: 0
  m_HasMotionFloatCurves: 0
  m_Events: []
