%YAML 1.1
%TAG !u! tag:unity3d.com,2011:
--- !u!74 &7400000
AnimationClip:
  m_ObjectHideFlags: 0
  m_CorrespondingSourceObject: {fileID: 0}
  m_PrefabInstance: {fileID: 0}
  m_PrefabAsset: {fileID: 0}
  m_Name: WalkAnimation
  serializedVersion: 7
  m_Legacy: 0
  m_Compressed: 0
  m_UseHighQualityCurve: 1
  m_RotationCurves: []
  m_CompressedRotationCurves: []
  m_EulerCurves: []
  m_PositionCurves: []
  m_ScaleCurves: []
  m_FloatCurves: []
  m_PPtrCurves:
  - serializedVersion: 2
    curve:
    - time: 0
      value: {fileID: 21300000, guid: 35d63f50dc50ca94485cab28fa6eb986, type: 3}
    - time: 0.05
      value: {fileID: 21300000, guid: cf9b3efad4547ff4bbbea47ba8dc7407, type: 3}
    - time: 0.1
      value: {fileID: 21300000, guid: dc95d94552a84444eb3d14aa7a542297, type: 3}
    - time: 0.13333334
      value: {fileID: 21300000, guid: 738fb43335f7fba4f92b3b5afb5a27dc, type: 3}
    - time: 0.16666667
      value: {fileID: 21300000, guid: b5c68c308a701734fb62dfddb377e5a7, type: 3}
    - time: 0.23333333
      value: {fileID: 21300000, guid: d4efe3a634e168e4c8309d662befb5b2, type: 3}
    - time: 0.26666668
      value: {fileID: 21300000, guid: a6f8bdc9ae889304398f684a7f2115e1, type: 3}
    - time: 0.3
      value: {fileID: 21300000, guid: 801edb78a2d06034aa0bac23c0dcf4be, type: 3}
    - time: 0.35
      value: {fileID: 21300000, guid: c669dc7512d87fb43b55c0103506cc04, type: 3}
    - time: 0.4
      value: {fileID: 21300000, guid: 9cb4f13d98807bf488a4c44379651173, type: 3}
    attribute: m_Sprite
    path: 
    classID: 212
    script: {fileID: 0}
    flags: 2
  m_SampleRate: 60
  m_WrapMode: 0
  m_Bounds:
    m_Center: {x: 0, y: 0, z: 0}
    m_Extent: {x: 0, y: 0, z: 0}
  m_ClipBindingConstant:
    genericBindings:
    - serializedVersion: 2
      path: 0
      attribute: 0
      script: {fileID: 0}
      typeID: 212
      customType: 23
      isPPtrCurve: 1
      isIntCurve: 0
      isSerializeReferenceCurve: 0
    pptrCurveMapping:
    - {fileID: 21300000, guid: 35d63f50dc50ca94485cab28fa6eb986, type: 3}
    - {fileID: 21300000, guid: cf9b3efad4547ff4bbbea47ba8dc7407, type: 3}
    - {fileID: 21300000, guid: dc95d94552a84444eb3d14aa7a542297, type: 3}
    - {fileID: 21300000, guid: 738fb43335f7fba4f92b3b5afb5a27dc, type: 3}
    - {fileID: 21300000, guid: b5c68c308a701734fb62dfddb377e5a7, type: 3}
    - {fileID: 21300000, guid: d4efe3a634e168e4c8309d662befb5b2, type: 3}
    - {fileID: 21300000, guid: a6f8bdc9ae889304398f684a7f2115e1, type: 3}
    - {fileID: 21300000, guid: 801edb78a2d06034aa0bac23c0dcf4be, type: 3}
    - {fileID: 21300000, guid: c669dc7512d87fb43b55c0103506cc04, type: 3}
    - {fileID: 21300000, guid: 9cb4f13d98807bf488a4c44379651173, type: 3}
  m_AnimationClipSettings:
    serializedVersion: 2
    m_AdditiveReferencePoseClip: {fileID: 0}
    m_AdditiveReferencePoseTime: 0
    m_StartTime: 0
    m_StopTime: 0.4166667
    m_OrientationOffsetY: 0
    m_Level: 0
    m_CycleOffset: 0
    m_HasAdditiveReferencePose: 0
    m_LoopTime: 1
    m_LoopBlend: 0
    m_LoopBlendOrientation: 0
    m_LoopBlendPositionY: 0
    m_LoopBlendPositionXZ: 0
    m_KeepOriginalOrientation: 0
    m_KeepOriginalPositionY: 1
    m_KeepOriginalPositionXZ: 0
    m_HeightFromFeet: 0
    m_Mirror: 0
  m_EditorCurves: []
  m_EulerEditorCurves: []
  m_HasGenericRootTransform: 0
  m_HasMotionFloatCurves: 0
  m_Events: []
